leg_id,0
16a4e855-e304-4ccb-8e76-fe4ef2216923,car
2a46c150-ff81-4eb2-8263-dbf574928e4e,car
4e909c85-c7b4-40b9-b2c9-7042f57793b2,bicycle
51f45eeb-4dd6-4c3b-9051-b53c60622510,car
7d527d7b-5edc-4b0e-8e64-be45825c785f,bicycle
88beee10-073a-40c0-95f7-843cbd117ee8,car
91c57f2b-9782-4602-9f94-77f95531fba9,car
9af1abf3-9bdb-4b22-b8f9-47962434f0fc,car
a39b9489-eb09-4954-8696-681ad407ba41,car
ab6133b5-33f6-415c-9c43-1573dfdf628c,car
b2835cf1-d457-43a1-a143-00eae6de0d6a,car
b537b122-821c-4965-9a7e-d6332b1b5cbf,bicycle
b8019690-bb9c-4a1a-b869-899f8862d87b,car
c34df93f-2c88-47ed-b32c-7bee0b3ca0b9,car
c8592f70-c275-49a8-8e3a-4fb784a19720,car
c96d82b3-e3f6-43cd-a18d-6a465ff8f14f,bicycle
ccb1766f-b4dc-4dd6-92b2-bb034ec0955f,bicycle
e457f851-9079-472f-bd75-639c040a8be0,car
f2ce70e8-7e7a-4139-be54-ba37ed44b57f,car
ff528e32-87dd-41ad-91ec-602e726f0436,car
9a6f6924-1a99-43b0-a6c3-48774d94f41d,bicycle
6ec392b1-86cf-491f-85c8-a53d3e7eabd9,bicycle
d2a0168d-0d52-4861-a3f5-e7a674f43f12,car
ef736e31-2ebd-4a50-b465-d9004ec2e023,car
379a5a3c-4b78-499d-a554-c3914a945948,car
502c1c39-d632-4c8c-a826-6cbd352142cf,car
85235e15-4e50-4f8b-bd74-572c368ed7f6,car
9aaba78e-e178-4fd5-98e1-e9938ab40165,car
c28d82bb-2979-444d-8a26-9533e09d3d28,car
c3fb2b34-fbce-47d0-9315-5dda51723897,car
c4e7c563-481f-4f38-871b-1d4878c20489,car
120d4a5a-4320-443a-8c85-21229a8b0427,car
156ceefa-f4d5-47b5-9cdd-56386157fc84,car
1f549549-204a-4290-a692-377d29eefc1b,car
241bae10-0841-48af-abf6-90d69bf4ba13,bicycle
34f3ffb1-f66d-46a7-b37d-6b463e2e7f19,bicycle
38ea3439-07cc-421c-9db7-be62017eb512,car
3daa2a2d-81fc-4ded-9d88-a5fc59fe6707,car
3ef51235-4dfe-4e3c-a0bb-afd8371a9fd4,car
3f70a826-3b1f-41ee-9023-8956ccef6ce8,car
49d11afe-1533-43e4-83e6-b56df80157cc,car
4c1e7883-73d0-4a73-8408-d752bfd46295,car
4dd34a5a-80c9-4ae3-abd1-aeb47fe31aaa,car
4e29a4c1-c771-4b3a-8e61-7a2bf351eff3,car
5609e459-3ecc-4ac0-b920-2f59027dcd31,car
5c18249e-2851-4a90-8e32-e42059c80cba,car
5f8c62a5-fa51-43e7-ab2f-89198ff6953e,car
6c2c033a-edf0-4bc3-972a-3064a1bf6c76,bicycle
704d867b-e2c3-48f0-a433-3580fc775bfd,car
747b118f-8fe5-471c-8709-588aa55d2c16,car
7f9cf8e6-5d2a-405f-bebb-c9fcdc1a1493,car
b8c53df9-42ac-4ada-b9e3-64932c56546b,car
be2d1980-cfb3-4efc-b598-53211a08b733,car
c8ff151f-19f5-4334-b8f5-ad577f0c06e5,car
c93343f6-83d3-44c1-b369-6b2a09eb7b40,car
cd0335d5-d203-46f1-a98e-837857657731,car
e27a278f-d479-44a2-9e2c-7a4a43735793,car
e2ba3f62-77bb-47eb-859b-34fd78aa7702,car
e95c7fb9-208b-4173-8d00-d07918c022d3,car
f344260e-377b-4bb2-9f51-93f02a4901ca,car
fb6540a3-c1b8-4e95-9160-57d1251a466b,car
062fb41f-b33f-4c6b-8fee-698cb90f0677,car
13cd6df8-ac9b-4aec-a25b-bee93b0fb2ad,car
23294091-ec35-48af-9db9-ec24f5adaedb,car
3f465a0d-34fd-4972-8602-f53675ad8681,car
445c43c3-4a02-4ef1-92ba-31eaec6e913d,car
7faff1ea-9f30-4cda-96a4-5c6e49cc4547,car
813e31b6-32ff-4ecb-8b16-1e7552ad34a3,car
f732469e-9000-4825-bb27-bc403a21a7d7,car
1f613f28-27ea-4538-a862-ab76c5c94325,car
2802fcaf-06b7-4022-a800-c3afdc489d67,car
2819ba1e-58df-4dbc-b078-9b3ad301b91e,car
2ceee41f-807f-4bfd-8038-bad235732dcb,car
4d7aff3d-7101-4ab3-a1de-abf4120e594d,bicycle
527a2aab-eb96-40fd-92da-06a3689030e9,car
7004ab44-09ec-4c5e-94f1-23367a79db8a,car
9e6bf8e0-6a90-4a68-bba8-71b75bb191b9,car
be90dfca-ebbc-448d-b016-d5e8f1549860,car
01da00d4-c253-45fb-9302-26fe1f6536f9,bicycle
0b3e3dd6-2832-4c1b-bd9c-39d3c499269a,car
0ff05dad-ce3c-4cbd-9a38-0be086a8a17c,car
10a7531f-5204-4fa9-b4ae-99db1b74d311,car
17008656-09db-4db5-87ff-04721e5d4110,car
1a912025-68d2-41f5-8019-2f5d2d4a1c55,car
1c782c1d-8637-46b7-aac8-60772a228329,car
28b76014-5c1b-49af-96e3-b7ffd69495b0,car
2e31112b-b2f8-41be-9cb3-a332419815af,car
2fa15cca-3851-4db5-9468-6f829354776e,car
4622a861-4309-468c-bdc0-a081f181abe2,bicycle
474fd15a-332d-45ab-8347-17ed584b2643,car
4b7369ce-c340-4e52-9ca6-c4a12f57a99e,car
531bf57f-d184-46ae-8677-692870280190,bicycle
58a9d9b5-219b-496b-a4c0-157a4b234f3f,bicycle
5c2c5ea6-6543-4d83-8368-45c50e1b3d10,bicycle
5c5e8ba0-bbfc-4d7c-b2cc-2e5967222ee1,car
5c6968a5-9820-4646-80fd-9df5f41e8499,bicycle
67273ab1-20ce-412e-8e5e-8a7a929b6057,car
6c11c25e-672c-49ae-821b-497d844afa56,car
7105f4fe-8056-4323-b7d7-2a8970476664,car
74544b90-adad-4653-b381-c975f2098c32,bicycle
78e1529c-8a9d-4df5-ac1f-3e9362074a58,car
8a1c60b9-d8b4-41d9-8680-074e0de24bc4,car
9caf2e81-6849-45cd-845b-c4c08ae7e56d,car
a83efc28-68bb-4963-ab1c-f60e49316302,bicycle
bb3e04b6-82a8-477b-af9c-4908532b1e56,car
bdac4561-ba5f-4c97-af9a-e5080e962c7d,car
dcea4439-a869-47d8-813a-ad66d2c0f311,bicycle
e08e653c-8b74-4392-854e-7a231300e184,car
e390b5c2-f6ea-494c-81ad-0c17886b71b0,bicycle
e5e5a200-a1b8-4641-ae09-69d90380c0f9,walk
e5ff240c-c397-41ed-9cdd-e7ebf0d9a1e0,car
e929379d-5205-4d42-80d0-a73851851ca0,car
eb1bc7bf-3acf-49a1-86cd-c4f45db729fc,car
f0d0c939-4f15-48e7-b3d3-d626542e8dff,car
f7459c6a-419c-402a-8e52-4559055ad468,bicycle
0175ad87-76b2-4987-989c-fb637514f365,car
02877c3c-6298-498c-a24f-938027dd0693,car
07152426-9a15-4b19-add1-d7b72b07376a,car
0b0e78ec-8370-4f6c-8e9a-6f6d2c26c9ac,car
0c53263e-6b39-46bf-ba1c-9b5369da0215,bicycle
0c9da5dc-cd77-4680-8836-eb88ee97484c,car
0f5c2855-be29-4f03-9dd0-2366d35497c1,bicycle
1212679b-ab96-43f9-a8d0-60e1700f6998,bicycle
1598e506-d4a2-4d74-a076-78e2199608f9,bicycle
1a2241b8-a6c6-4a0e-bf1f-3846df2e67a0,car
1c24d920-189e-4fda-81c7-ee05119cde0e,car
1c821dff-fb83-4eb3-81a7-db882eb64f42,bicycle
1de0af71-36f7-48db-bd7b-1ec4accc88dd,bicycle
23acc57e-1090-4c6c-8e65-c3057ad7b82b,car
2680ff28-d885-4899-8e0b-2bdb2b34c129,car
28ef8091-4942-4355-99cb-27420f0cab7c,car
2c19ffe2-0262-4d05-ac29-9eb3befb594f,car
2cf901e5-fffb-4e98-972d-8427fc66c583,car
2f235f39-130f-4679-b76f-8e793f6fc090,car
30eceb63-0e8d-46e9-8b01-0c1d278b8ed3,car
336c4a4a-717d-43f9-be10-749478d8748e,car
351ce210-d977-4f6e-ac46-c66514561e52,car
36a43142-eb76-46b3-9e7d-96b0b5273a1c,car
391a347a-fa88-4a05-85c9-1843fa00ae62,bicycle
3c75bebb-550c-4250-8e2c-5672bdd77019,car
3d9cd2c7-5eac-42eb-8956-adc6f5898d63,car
43eceb03-c5ce-4efe-921e-c96211470161,bicycle
4ef64de5-3c80-45e6-959f-80dc86e9f811,car
52c96145-9231-47d4-a17f-b5d4eb7805f1,car
5767b6ff-ecdb-42fa-b575-3e69fcba0958,car
5934943d-8e81-4ca2-8f20-5293eb9436a8,car
5d09dab0-e7ce-42db-baa0-8a749161ab56,bicycle
5d235575-b758-479f-a15f-4e08b53798f9,car
6508ccc3-1e5f-42f4-8504-8e78b85f2b56,bicycle
6e0da37b-73a6-4c42-a416-3951bd91517e,car
6e4f2d31-acac-4b63-a3ee-26d7a8744914,bicycle
6eb6d55f-1095-4459-9ec8-c238894a2cc7,bicycle
76a6ddda-b2b3-445b-b95b-9a6b27bf0800,car
76f6a15e-8930-4cda-97c7-b50e77f3d5bb,car
801e4d62-7683-432c-8870-84052004ebcd,car
850a5c92-a164-41de-8607-2d7c60dbe7a2,car
8695c615-02d9-4cbd-9f7f-2586621e621a,car
89a68ca2-e046-47da-80c3-9af1bc308ddc,car
8c6d3e3a-b7e5-481b-aba3-5ba992d3c217,car
8e24d907-b23b-4ed5-b761-d25e2c1d8edc,bicycle
983537b5-c792-47e0-b2df-649f1edeea82,car
9d779490-b265-4d95-a04d-0dd7abe78f04,car
9f876085-ff92-4ab8-8835-9818b23f49db,car
a4209b4e-ec18-42cd-9f32-d261e6111dea,bicycle
a7dd061b-87bc-4de2-96be-2dbc5826fa8b,bicycle
a806a3bf-d397-4e2e-8ce2-25e1b8fb4aa1,car
acbb44ee-5b02-42e5-9ea8-aa9bb2a6f43b,bicycle
b0032419-e350-48eb-84c6-580e06c966ac,bicycle
b2497da1-b7c9-4207-a9c2-7b641935326a,bicycle
b9249dfd-b457-40fc-a980-5b4faff3ef24,car
bb34f6d3-aaff-4c1d-b84f-c0c3789f3db9,bicycle
bdbb187d-7053-431a-958f-590047936023,bicycle
bf379d7b-7ba0-48f8-87fb-e3bac3f4812a,car
c1e7416e-bde8-488e-b6b0-c2b779d5d30c,car
c6554dfb-167b-4bdf-9f2d-fd00bd034fa1,bicycle
cd3ceb55-93e8-4e01-b1ec-8a4e2c420309,car
cd599682-7598-46a4-92ab-e9f593028b42,bicycle
d05a9aab-c53a-4cc0-b39f-d39f877b33ae,car
d16305a6-168e-4dbd-88a0-3a76823e677c,car
d64c6067-a53a-45a5-bbbe-eadd4a28f98d,car
dd24a2bf-cceb-4e56-a282-915c73e37689,bicycle
e4bb02f7-d317-4ef1-87d9-892ea2163a2f,car
e522c790-0cd6-4f72-8e31-429d274a2c66,car
e597a974-d3e3-4c75-88db-cc25d817c406,car
e71a0ad2-620b-46ae-88a5-24ab36ad7597,car
e891281d-7b60-4514-94d0-45185443cd02,bicycle
ec950ec5-7a07-4ff7-a3dd-d66e3d585e62,car
ed68a25e-c41a-4e98-b922-12d8a2dd8765,car
f69120bd-67a2-4d70-bf94-60075de73bb8,bicycle
f7c2cc59-74e1-49ce-b01f-4a0ded4be8d4,car
f9d34b14-e711-4f04-806e-85c0e83369aa,car
fedd398a-9268-4997-9034-83479e3ac562,bicycle
05171d36-ecd6-40b9-aa0d-bc393b34b451,car
0a518614-7f4d-4cf0-88fb-684d6f31618a,car
152b180b-5eb5-4c95-bbc2-dc37aefe9870,car
1713fc73-46b0-4374-85dd-e833ce17e3ac,car
283e8ea8-df53-4b10-8a5f-1a7695f9f5ab,car
325f64ab-6659-4f35-b40f-594e4893fc8c,car
406a2d40-d002-4bf1-8f68-00913e047667,car
81aa85fd-fafb-4398-b18e-cd6ed206a107,car
937d4055-0f8a-4a0e-be58-6f518820a861,car
a42b9845-aa61-4ab0-95a3-fc112f3120b3,car
b5262a5c-1b76-4660-86a6-d6a317d090b7,car
bb6fa767-4f06-4f08-b56c-48e3f5f4f28c,car
bba84992-b9fc-4da5-af0f-53e722fc9179,car
d2c7e60c-17bc-4abb-83ca-72c54bb2d987,car
efab09bb-67f9-4df0-8cde-0238d8598953,bicycle
fa3ef5b6-debb-40ea-94d3-0aea6b071594,car
fc1a54cb-1bea-467f-a67b-4d5cbea8b561,car
