ID,The Organisation that you work for (this will be used to know which Slack to contact you on):,Your full name:,What is the email address that is linked to your Google account on your phone? This will be the same email address that is used in the Play Store and is required to add you as a Beta Tester to the CittaMobi app,"Will you be able to do trips that are longer than 10 minutes and are further than 500m away from home? If you are experiencing a lockdown or have movement limitations please select ""No"" as we do not want to put anyone at risk.",Which of the below modes will you be able to travel with (keep in mind that you will need to travel for at least 10 minutes)?,"In the next 7 days, do you plan on doing any trips (that are at least 7 minutes and 1km away) for the following purposes?","If needed, would you be willing to travel using a variety of modes (driving and walking)?",Received Trip Diary Link,Cittamobi's device id,Participant ID,Device ID,External User ID
0,GoMetro,Justin Coetzee,justin@gometroapp.com,Yes,"Bicycle, Car, Bus, Walking, Running",Go to work,Yes,FALSE,e2ffa8c38237deb8,93181b36-6cfb-4b8d-a895-aabef5a6815c,a811b2c9-d644-4ca3-8757-a26d5a380c0a,74892f73570fe2b5d31a009cecb91c0963153a3374f2af66eb833c97baed552d
1,GoMetro,Craig Rautenbach,craigsneak82@gmail.com,Yes,"Bicycle, Car, Walking, Running","Go to the shops, Other purpose (entertainment/relaxation/visits/etc.)",Yes,FALSE,6cfce962190e94bd,e59042cb-80f1-472b-80b3-ab69441511ac,ae7c4175-62b5-482d-a341-ae5b556c113a,77fa672cb827c196128b43c88593bce6a44e14420e06060918dc1c34720fb3f4
2,GoAscendal,Johan Muller,johan.muller@goascendal.com,Yes,"Car, Walking, Running","Go to work, Go to the shops, Other purpose (entertainment/relaxation/visits/etc.)",Yes,FALSE,,,,
3,GoAscendal,Philip Krause,pgkrause88@gmail.com,Yes,"Car, Walking, Running","Go to the shops, Other purpose (entertainment/relaxation/visits/etc.)",Yes,FALSE,c8e4027ebeb9e2d3,ccc8ea3e-248b-47a3-ad34-89efcbd04ca8,8b4dfe0f-28ec-4b79-9d20-f725e2c07f9d,575b3d0925494b1f76f9b35b9db6ec6e726317177d1c11da51520acd817c5b45
4,GoAscendal,Matthew Cole,matthew.cole@ascendalgroup.com,Yes,"Walking, Running",Go to the shops,Yes,FALSE,527d5e48928c3b4b,0ab124d9-edd9-410e-ab72-9fb8ffc7cedd,ff148ab4-b55d-43d2-b408-01c9feaeed1d,1aa146311c59aadb1d5310819b444c8517e5548016e3bd82189b52502d444ee4
5,GoMetro,Prian Reddy,prianreddy4@gmail.com,No,"Car, Walking","Go to the shops, Other purpose (entertainment/relaxation/visits/etc.)",No,FALSE,,,,
6,GoAscendal,Clayton Lane,claytonlane@gmail.com,Yes,"Bicycle, Bus, Train, Walking, Running","Go to the shops, Other purpose (entertainment/relaxation/visits/etc.)",Yes,FALSE,,,,
7,GoMetro,Letlhogile Mothoagae,lot.mothoagae@gmail.com,Yes,"Car, Walking, Running",Go to the shops,Yes,FALSE,76f6117ecdbde7dc,a1e660a5-4b0f-4e4d-a631-97ca8264dd5b,de2fb4c4-ea3b-41dd-8be6-43283072a92b,73ded924e0c0b7e8327bdc1219989a6271948f8c3900d1fb9424f390c3b6f28d
8,CittaMobi,Fred Werneck,fredfateman@gmail.com,Yes,"Car, Train, Walking","Go to work, Other purpose (entertainment/relaxation/visits/etc.)",Yes,FALSE,0662d6614f3017e1,e2dc773b-15e0-4451-8c09-faf5ed644699,8306c199-3ae1-47f5-a337-fa7a84fb3ad3,128b2e77d2eb7c0d33880a4afc224250e389fbeafab8839c4562d60aefefacd8
9,CittaMobi,Michele Martins da Silva,micheleflor@gmail.com,Yes,Car,Go to work,No,FALSE,5e28dab4a15ee5cb,401bfdc2-ee26-4c4e-b350-319cc4499ec2,81573f64-19e0-4dec-a28c-594ffcfda64e,3ebee6bdd1dc2c5900989c332d0463d03698f869feb51920bf368711e3711ac9
10,GoMetro,Robert Crous,robert@gometroapp.com,Yes,"Car, Walking, Running","Go to work, Go to the shops, Other purpose (entertainment/relaxation/visits/etc.)",Yes,TRUE,df2a602d98094f38,9c3e37e8-5b51-463c-8688-4452e0c39dbf,ddf43a51-a461-4d73-a53e-285ef13a0df7,7498214c2bbb05eb7476fe704e01d909a8dd94eee830d5878ff64ea66c998fbe
11,GoAscendal,Jenny Millard,jennymillard01@gmail.com,Yes,"Car, Walking, Running",Other purpose (entertainment/relaxation/visits/etc.),Yes,FALSE,,,,
12,GoMetro,Zanelle Coetzee,coetzee.zanelle@gmail.com,Yes,"Car, Walking","Go to work, Go to the shops, Other purpose (entertainment/relaxation/visits/etc.)",Yes,FALSE,03f5977a126a0c64,e8370867-30ce-475a-a444-2bcd1cc321d3,966f0a33-ebe2-471f-8ef3-5f2fa48f1176,b9de788ca291818c68e27b02ff8aaba2174cecc9dcef990b6b4a52a5b20d366b
13,GoMetro,Rosy Mohohlo,mmahadinanarosy@gmail.com,Yes,"Walking, Running",Go to the shops,Yes,FALSE,d9aeed432541370a,0563a400-c33a-477f-a656-2a3309d490cb,7edbd0c4-daf0-4f4b-874e-9db084ad2c58,eb0709e60436c11c31687d61b757fec54173373f44f87de525877547cd9826db
14,Husband works for GoAscendal ,Brittany Giroux Lane,brittany.g.lane@gmail.com,Yes,"Bicycle, Car, Bus, Train, Walking","Go to the shops, Other purpose (entertainment/relaxation/visits/etc.)",Yes,FALSE,c3705f16b9521770,,,4f511859d6012d98dc3b6f518fb0d228a252b094b838575e6c85cce21959295e
15,GoAscendal,Marianela Bauche,marianelabauche@gmail.com,Yes,Walking,Other purpose (entertainment/relaxation/visits/etc.),Yes,FALSE,15e9cbcab00123ca,f5477b8e-26bb-4e21-9eb1-6d75cbcaa6ce,30c7987c-67b9-409e-b533-a1966ac0bdf2,78ca007ae30ee42db0576fbfff748e718810b7e1c74b5f05fd604eff37a422ae
16,CittaMobi,Bianca Cisneiros,bianca.cisneiros96@gmail.com,Yes,"Bicycle, Bus, Walking","Go to work, Other purpose (entertainment/relaxation/visits/etc.)",Yes,FALSE,84745bb5d345b4a6,d4d5b183-34dc-4402-91f7-46e1a22f4b88,e2fbf269-fcb9-49de-80e7-70ce1430673d,b9cc06245813838902d76f86854334d14c4e2d30cb0dfa4de5d3e22cd539faab
17,CittaMobi,FERNANDO MATSUMOTO,nandomatsumoto@gmail.com,Yes,"Bicycle, Car, Walking","Go to the shops, Other purpose (entertainment/relaxation/visits/etc.)",No,FALSE,a9f995ddc4431e19,2e7bd09e-b11b-474f-aa2c-451828c4dc21,87bf707b-a8d8-4c8d-b2ba-63b06a4f80d0,9b519ff4bc80b1db88f674349ffbcf15855fc5b228ab3edb70fd36185b3daa47
18,GoMetro,Ernst Coetzee,ernst@gometroapp.com,Yes,"Car, Walking","Go to the shops, Other purpose (entertainment/relaxation/visits/etc.)",Yes,FALSE,,,,
19,GoMetro,Janine Coetzee,janinecoetzee79@gmail.com,Yes,"Car, Walking","Go to the shops, Other purpose (entertainment/relaxation/visits/etc.)",Yes,FALSE,,,,
20,GoMetro,Mugammad Khaleel Ederies,khaleelederies@gmail.com,Yes,"Car, Walking",Go to the shops,Yes,FALSE,,,,
21,GoAscendal,Andres Gartner,asgartner@gmail.com,Yes,"Car, Bus, Train, Walking","Go to work, Go to the shops, Other purpose (entertainment/relaxation/visits/etc.)",Yes,FALSE,af55d7df9aef70f3,99fed303-77bb-417b-89b5-b70a87bf4a49,058fc946-a635-4dc0-bbf7-a3c6ba085c1c,2e08a4fd0d3977abf499833836fef1921aa80a85bf8babc4b63140cd8b2d2b8a
22,GoAscendal,Clayton Lane,claytonlane@gmail.com,Yes,"Bicycle, Bus, Train, Walking, Running","Go to the shops, Other purpose (entertainment/relaxation/visits/etc.)",Yes,FALSE,,,,